[2016-09-29 10:22:58.213] [DEBUG] jive-sdk - Zipping extension_src/data/overview.html to extension.zip  :  data/overview.html
[2016-09-29 10:22:58.214] [DEBUG] jive-sdk - Zipping extension_src/data/privacy_policy.html to extension.zip  :  data/privacy_policy.html
[2016-09-29 10:22:58.215] [DEBUG] jive-sdk - Zipping extension_src/data/screenshot_1.png to extension.zip  :  data/screenshot_1.png
[2016-09-29 10:22:58.216] [DEBUG] jive-sdk - Zipping extension_src/data/screenshot_2.png to extension.zip  :  data/screenshot_2.png
[2016-09-29 10:22:58.217] [DEBUG] jive-sdk - Zipping extension_src/i18n/en.properties to extension.zip  :  i18n/en.properties
[2016-09-29 10:22:58.218] [DEBUG] jive-sdk - Zipping extension_src/i18n/root.properties to extension.zip  :  i18n/root.properties
[2016-09-29 10:22:58.218] [DEBUG] jive-sdk - Zipping extension_src/public/favicon.ico to extension.zip  :  public/favicon.ico
[2016-09-29 10:22:58.233] [DEBUG] jive-sdk - Zipping extension_src/public/javascripts/bootstrap-30.js to extension.zip  :  public/javascripts/bootstrap-30.js
[2016-09-29 10:22:58.233] [DEBUG] jive-sdk - Zipping extension_src/public/javascripts/bootstrap-30.min.js to extension.zip  :  public/javascripts/bootstrap-30.min.js
[2016-09-29 10:22:58.233] [DEBUG] jive-sdk - Zipping extension_src/public/javascripts/bootstrap.min.js to extension.zip  :  public/javascripts/bootstrap.min.js
[2016-09-29 10:22:58.234] [DEBUG] jive-sdk - Zipping extension_src/public/javascripts/jQuery-1.10.2.js to extension.zip  :  public/javascripts/jQuery-1.10.2.js
[2016-09-29 10:22:58.235] [DEBUG] jive-sdk - Zipping extension_src/public/javascripts/jquery-1.8.3.js to extension.zip  :  public/javascripts/jquery-1.8.3.js
[2016-09-29 10:22:58.235] [DEBUG] jive-sdk - Zipping extension_src/public/javascripts/jquery.base64.min.js to extension.zip  :  public/javascripts/jquery.base64.min.js
[2016-09-29 10:22:58.236] [DEBUG] jive-sdk - Zipping extension_src/public/stylesheets/bootstrap-30.css to extension.zip  :  public/stylesheets/bootstrap-30.css
[2016-09-29 10:22:58.236] [DEBUG] jive-sdk - Zipping extension_src/public/stylesheets/bootstrap-30.min.css to extension.zip  :  public/stylesheets/bootstrap-30.min.css
[2016-09-29 10:22:58.236] [DEBUG] jive-sdk - Zipping extension_src/public/stylesheets/bootstrap.css to extension.zip  :  public/stylesheets/bootstrap.css
[2016-09-29 10:22:58.237] [DEBUG] jive-sdk - Zipping extension_src/public/stylesheets/bootstrap.min.css to extension.zip  :  public/stylesheets/bootstrap.min.css
[2016-09-29 10:22:58.237] [DEBUG] jive-sdk - Zipping extension_src/public/stylesheets/style.css to extension.zip  :  public/stylesheets/style.css
[2016-09-29 10:22:58.250] [DEBUG] jive-sdk - Zipping extension_src/public/tiles/group-members-view/configuration.html to extension.zip  :  public/tiles/group-members-view/configuration.html
[2016-09-29 10:22:58.252] [DEBUG] jive-sdk - Zipping extension_src/public/tiles/group-members-view/view.html to extension.zip  :  public/tiles/group-members-view/view.html
[2016-09-29 10:22:58.258] [DEBUG] jive-sdk - Zipping extension_src/public/tiles/group-members-view/javascripts/bootstarp.min.js to extension.zip  :  public/tiles/group-members-view/javascripts/bootstarp.min.js
[2016-09-29 10:22:58.258] [DEBUG] jive-sdk - Zipping extension_src/public/tiles/group-members-view/javascripts/bootstrap-datetimepicker.min.js to extension.zip  :  public/tiles/group-members-view/javascripts/bootstrap-datetimepicker.min.js
[2016-09-29 10:22:58.258] [DEBUG] jive-sdk - Zipping extension_src/public/tiles/group-members-view/javascripts/configuration.js to extension.zip  :  public/tiles/group-members-view/javascripts/configuration.js
[2016-09-29 10:22:58.259] [DEBUG] jive-sdk - Zipping extension_src/public/tiles/group-members-view/javascripts/index.js to extension.zip  :  public/tiles/group-members-view/javascripts/index.js
[2016-09-29 10:22:58.259] [DEBUG] jive-sdk - Zipping extension_src/public/tiles/group-members-view/javascripts/jquery-ui.js to extension.zip  :  public/tiles/group-members-view/javascripts/jquery-ui.js
[2016-09-29 10:22:58.260] [DEBUG] jive-sdk - Zipping extension_src/public/tiles/group-members-view/javascripts/jquery.blockUI.js to extension.zip  :  public/tiles/group-members-view/javascripts/jquery.blockUI.js
[2016-09-29 10:22:58.261] [DEBUG] jive-sdk - Zipping extension_src/public/tiles/group-members-view/javascripts/jquery.jsoneditor.js to extension.zip  :  public/tiles/group-members-view/javascripts/jquery.jsoneditor.js
[2016-09-29 10:22:58.261] [DEBUG] jive-sdk - Zipping extension_src/public/tiles/group-members-view/javascripts/jquery.min.js to extension.zip  :  public/tiles/group-members-view/javascripts/jquery.min.js
[2016-09-29 10:22:58.262] [DEBUG] jive-sdk - Zipping extension_src/public/tiles/group-members-view/javascripts/main.js to extension.zip  :  public/tiles/group-members-view/javascripts/main.js
[2016-09-29 10:22:58.262] [DEBUG] jive-sdk - Zipping extension_src/public/tiles/group-members-view/javascripts/moment.min.js to extension.zip  :  public/tiles/group-members-view/javascripts/moment.min.js
[2016-09-29 10:22:58.262] [DEBUG] jive-sdk - Zipping extension_src/public/tiles/group-members-view/javascripts/resizable-tables.js to extension.zip  :  public/tiles/group-members-view/javascripts/resizable-tables.js
[2016-09-29 10:22:58.263] [DEBUG] jive-sdk - Zipping extension_src/public/tiles/group-members-view/stylesheets/main.css to extension.zip  :  public/tiles/group-members-view/stylesheets/main.css
[2016-09-29 10:22:58.271] [DEBUG] jive-sdk - Zipping extension_src/public/tiles/group-members-view/bootstrap/css/bootstrap-theme.css to extension.zip  :  public/tiles/group-members-view/bootstrap/css/bootstrap-theme.css
[2016-09-29 10:22:58.271] [DEBUG] jive-sdk - Zipping extension_src/public/tiles/group-members-view/bootstrap/css/bootstrap-theme.css.map to extension.zip  :  public/tiles/group-members-view/bootstrap/css/bootstrap-theme.css.map
[2016-09-29 10:22:58.271] [DEBUG] jive-sdk - Zipping extension_src/public/tiles/group-members-view/bootstrap/css/bootstrap-theme.min.css to extension.zip  :  public/tiles/group-members-view/bootstrap/css/bootstrap-theme.min.css
[2016-09-29 10:22:58.272] [DEBUG] jive-sdk - Zipping extension_src/public/tiles/group-members-view/bootstrap/css/bootstrap-theme.min.css.map to extension.zip  :  public/tiles/group-members-view/bootstrap/css/bootstrap-theme.min.css.map
[2016-09-29 10:22:58.272] [DEBUG] jive-sdk - Zipping extension_src/public/tiles/group-members-view/bootstrap/css/bootstrap.css to extension.zip  :  public/tiles/group-members-view/bootstrap/css/bootstrap.css
[2016-09-29 10:22:58.273] [DEBUG] jive-sdk - Zipping extension_src/public/tiles/group-members-view/bootstrap/css/bootstrap.css.map to extension.zip  :  public/tiles/group-members-view/bootstrap/css/bootstrap.css.map
[2016-09-29 10:22:58.273] [DEBUG] jive-sdk - Zipping extension_src/public/tiles/group-members-view/bootstrap/css/bootstrap.min.css to extension.zip  :  public/tiles/group-members-view/bootstrap/css/bootstrap.min.css
[2016-09-29 10:22:58.273] [DEBUG] jive-sdk - Zipping extension_src/public/tiles/group-members-view/bootstrap/css/bootstrap.min.css.map to extension.zip  :  public/tiles/group-members-view/bootstrap/css/bootstrap.min.css.map
[2016-09-29 10:22:58.275] [DEBUG] jive-sdk - Zipping extension_src/public/tiles/group-members-view/bootstrap/fonts/glyphicons-halflings-regular.eot to extension.zip  :  public/tiles/group-members-view/bootstrap/fonts/glyphicons-halflings-regular.eot
[2016-09-29 10:22:58.276] [DEBUG] jive-sdk - Zipping extension_src/public/tiles/group-members-view/bootstrap/fonts/glyphicons-halflings-regular.svg to extension.zip  :  public/tiles/group-members-view/bootstrap/fonts/glyphicons-halflings-regular.svg
[2016-09-29 10:22:58.276] [DEBUG] jive-sdk - Zipping extension_src/public/tiles/group-members-view/bootstrap/fonts/glyphicons-halflings-regular.ttf to extension.zip  :  public/tiles/group-members-view/bootstrap/fonts/glyphicons-halflings-regular.ttf
[2016-09-29 10:22:58.277] [DEBUG] jive-sdk - Zipping extension_src/public/tiles/group-members-view/bootstrap/fonts/glyphicons-halflings-regular.woff to extension.zip  :  public/tiles/group-members-view/bootstrap/fonts/glyphicons-halflings-regular.woff
[2016-09-29 10:22:58.277] [DEBUG] jive-sdk - Zipping extension_src/public/tiles/group-members-view/bootstrap/fonts/glyphicons-halflings-regular.woff2 to extension.zip  :  public/tiles/group-members-view/bootstrap/fonts/glyphicons-halflings-regular.woff2
[2016-09-29 10:22:58.277] [DEBUG] jive-sdk - Zipping extension_src/public/tiles/group-members-view/bootstrap/js/bootstrap.js to extension.zip  :  public/tiles/group-members-view/bootstrap/js/bootstrap.js
[2016-09-29 10:22:58.277] [DEBUG] jive-sdk - Zipping extension_src/public/tiles/group-members-view/bootstrap/js/bootstrap.min.js to extension.zip  :  public/tiles/group-members-view/bootstrap/js/bootstrap.min.js
[2016-09-29 10:22:58.278] [DEBUG] jive-sdk - Zipping extension_src/public/tiles/group-members-view/bootstrap/js/npm.js to extension.zip  :  public/tiles/group-members-view/bootstrap/js/npm.js
[2016-09-29 10:22:58.608] [INFO] jive-sdk - Updated 2 data file(s): [tileDefinition, jiveExtension]
[2016-09-29 10:50:24.768] [WARN] jive-sdk - ******************************
[2016-09-29 10:50:24.770] [WARN] jive-sdk - File persistence is configured.
[2016-09-29 10:50:24.770] [WARN] jive-sdk - Please note that this should
[2016-09-29 10:50:24.770] [WARN] jive-sdk - not be used for production!
[2016-09-29 10:50:24.770] [WARN] jive-sdk - ******************************
[2016-09-29 10:50:24.770] [DEBUG] jive-sdk - File persistence dir at 'db'
[2016-09-29 10:50:24.896] [INFO] jive-sdk - Updating definition group-members-view
[2016-09-29 10:50:24.927] [DEBUG] jive-sdk - Creating directory extension_src/public/apps
[2016-09-29 10:50:24.928] [DEBUG] jive-sdk - Creating directory extension_src/public/tiles
[2016-09-29 10:50:24.929] [DEBUG] jive-sdk - Copying public to extension_src/public
[2016-09-29 10:50:25.041] [DEBUG] jive-sdk - Creating directory extension_src/public/services
[2016-09-29 10:50:25.042] [DEBUG] jive-sdk - Copying public to extension_src/public
[2016-09-29 10:50:25.132] [DEBUG] jive-sdk - Copying /home/grazitti1/Documents/groupMembersViewTile/tiles/group-members-view/public to extension_src/public/tiles/group-members-view
[2016-09-29 10:50:25.372] [DEBUG] jive-sdk - definitions:
[
    {
        "displayName": "group-members-view",
        "name": "group-members-view",
        "description": "group-members-view",
        "style": "CUSTOM_VIEW",
        "displayWidth": "ALL",
        "dataProviderKey": "internal",
        "pageTypes": [
            "PLACE",
            "USER",
            "NEWS",
            "MOBILE"
        ],
        "icons": {
            "16": "https://developer.jivesoftware.com/DeveloperAssets/images/icons/jivedev-xsmall.png",
            "48": "https://developer.jivesoftware.com/DeveloperAssets/images/icons/jivedev-small.png",
            "128": "https://developer.jivesoftware.com/DeveloperAssets/images/icons/jivedev-med.png"
        },
        "config": "/public/tiles/group-members-view/configuration.html?features=responsive,tile",
        "view": "/public/tiles/group-members-view/view.html?features=responsive,tile,core-v3,os-2.5"
    }
]
[2016-09-29 10:50:25.372] [DEBUG] jive-sdk - templates:
null
[2016-09-29 10:50:25.373] [DEBUG] jive-sdk - apps:
[]
[2016-09-29 10:50:25.373] [DEBUG] jive-sdk - storageDefinitions:
[]
[2016-09-29 10:50:25.373] [DEBUG] jive-sdk - cartridges:
[]
[2016-09-29 10:50:25.380] [DEBUG] jive-sdk - Extension meta: 
{
    "package_version": "1.0",
    "id": "f06f55c1-921a-4fc5-9c61-51829ace9401",
    "type": "client-app",
    "name": "group-members-view",
    "description": "Description for group-members-view",
    "minimum_version": "0080300000",
    "icon_16": "extension-16.png",
    "icon_48": "extension-48.png",
    "icon_128": "extension-128.png",
    "released_on": "2016-09-26T10:54:46.374Z",
    "service_url": "http://localhost",
    "redirect_url": "%serviceURL%",
    "releasedOn": "2016-09-26T10:54:46.374Z"
}
[2016-09-29 10:50:25.974] [DEBUG] jive-sdk - Zipping extension_src/definition.json to extension.zip  :  definition.json
[2016-09-29 10:50:25.976] [DEBUG] jive-sdk - Zipping extension_src/meta.json to extension.zip  :  meta.json
[2016-09-29 10:50:25.992] [DEBUG] jive-sdk - Zipping extension_src/data/eula.html to extension.zip  :  data/eula.html
[2016-09-29 10:50:25.993] [DEBUG] jive-sdk - Zipping extension_src/data/extension-128.png to extension.zip  :  data/extension-128.png
[2016-09-29 10:50:25.993] [DEBUG] jive-sdk - Zipping extension_src/data/extension-16.png to extension.zip  :  data/extension-16.png
[2016-09-29 10:50:25.993] [DEBUG] jive-sdk - Zipping extension_src/data/extension-48.png to extension.zip  :  data/extension-48.png
[2016-09-29 10:50:25.993] [DEBUG] jive-sdk - Zipping extension_src/data/install_instructions.html to extension.zip  :  data/install_instructions.html
[2016-09-29 10:50:25.994] [DEBUG] jive-sdk - Zipping extension_src/data/overview.html to extension.zip  :  data/overview.html
[2016-09-29 10:50:25.994] [DEBUG] jive-sdk - Zipping extension_src/data/privacy_policy.html to extension.zip  :  data/privacy_policy.html
[2016-09-29 10:50:25.994] [DEBUG] jive-sdk - Zipping extension_src/data/screenshot_1.png to extension.zip  :  data/screenshot_1.png
[2016-09-29 10:50:25.995] [DEBUG] jive-sdk - Zipping extension_src/data/screenshot_2.png to extension.zip  :  data/screenshot_2.png
[2016-09-29 10:50:25.995] [DEBUG] jive-sdk - Zipping extension_src/i18n/en.properties to extension.zip  :  i18n/en.properties
[2016-09-29 10:50:25.996] [DEBUG] jive-sdk - Zipping extension_src/i18n/root.properties to extension.zip  :  i18n/root.properties
[2016-09-29 10:50:25.996] [DEBUG] jive-sdk - Zipping extension_src/public/favicon.ico to extension.zip  :  public/favicon.ico
[2016-09-29 10:50:26.042] [DEBUG] jive-sdk - Zipping extension_src/public/javascripts/bootstrap-30.js to extension.zip  :  public/javascripts/bootstrap-30.js
[2016-09-29 10:50:26.042] [DEBUG] jive-sdk - Zipping extension_src/public/javascripts/bootstrap-30.min.js to extension.zip  :  public/javascripts/bootstrap-30.min.js
[2016-09-29 10:50:26.042] [DEBUG] jive-sdk - Zipping extension_src/public/javascripts/bootstrap.min.js to extension.zip  :  public/javascripts/bootstrap.min.js
[2016-09-29 10:50:26.043] [DEBUG] jive-sdk - Zipping extension_src/public/javascripts/jQuery-1.10.2.js to extension.zip  :  public/javascripts/jQuery-1.10.2.js
[2016-09-29 10:50:26.043] [DEBUG] jive-sdk - Zipping extension_src/public/javascripts/jquery-1.8.3.js to extension.zip  :  public/javascripts/jquery-1.8.3.js
[2016-09-29 10:50:26.043] [DEBUG] jive-sdk - Zipping extension_src/public/javascripts/jquery.base64.min.js to extension.zip  :  public/javascripts/jquery.base64.min.js
[2016-09-29 10:50:26.044] [DEBUG] jive-sdk - Zipping extension_src/public/stylesheets/bootstrap-30.css to extension.zip  :  public/stylesheets/bootstrap-30.css
[2016-09-29 10:50:26.044] [DEBUG] jive-sdk - Zipping extension_src/public/stylesheets/bootstrap-30.min.css to extension.zip  :  public/stylesheets/bootstrap-30.min.css
[2016-09-29 10:50:26.044] [DEBUG] jive-sdk - Zipping extension_src/public/stylesheets/bootstrap.css to extension.zip  :  public/stylesheets/bootstrap.css
[2016-09-29 10:50:26.044] [DEBUG] jive-sdk - Zipping extension_src/public/stylesheets/bootstrap.min.css to extension.zip  :  public/stylesheets/bootstrap.min.css
[2016-09-29 10:50:26.044] [DEBUG] jive-sdk - Zipping extension_src/public/stylesheets/style.css to extension.zip  :  public/stylesheets/style.css
[2016-09-29 10:50:26.047] [DEBUG] jive-sdk - Zipping extension_src/public/tiles/group-members-view/configuration.html to extension.zip  :  public/tiles/group-members-view/configuration.html
[2016-09-29 10:50:26.047] [DEBUG] jive-sdk - Zipping extension_src/public/tiles/group-members-view/view.html to extension.zip  :  public/tiles/group-members-view/view.html
[2016-09-29 10:50:26.050] [DEBUG] jive-sdk - Zipping extension_src/public/tiles/group-members-view/javascripts/bootstarp.min.js to extension.zip  :  public/tiles/group-members-view/javascripts/bootstarp.min.js
[2016-09-29 10:50:26.050] [DEBUG] jive-sdk - Zipping extension_src/public/tiles/group-members-view/javascripts/bootstrap-datetimepicker.min.js to extension.zip  :  public/tiles/group-members-view/javascripts/bootstrap-datetimepicker.min.js
[2016-09-29 10:50:26.051] [DEBUG] jive-sdk - Zipping extension_src/public/tiles/group-members-view/javascripts/configuration.js to extension.zip  :  public/tiles/group-members-view/javascripts/configuration.js
[2016-09-29 10:50:26.051] [DEBUG] jive-sdk - Zipping extension_src/public/tiles/group-members-view/javascripts/index.js to extension.zip  :  public/tiles/group-members-view/javascripts/index.js
[2016-09-29 10:50:26.051] [DEBUG] jive-sdk - Zipping extension_src/public/tiles/group-members-view/javascripts/jquery-ui.js to extension.zip  :  public/tiles/group-members-view/javascripts/jquery-ui.js
[2016-09-29 10:50:26.051] [DEBUG] jive-sdk - Zipping extension_src/public/tiles/group-members-view/javascripts/jquery.blockUI.js to extension.zip  :  public/tiles/group-members-view/javascripts/jquery.blockUI.js
[2016-09-29 10:50:26.052] [DEBUG] jive-sdk - Zipping extension_src/public/tiles/group-members-view/javascripts/jquery.jsoneditor.js to extension.zip  :  public/tiles/group-members-view/javascripts/jquery.jsoneditor.js
[2016-09-29 10:50:26.052] [DEBUG] jive-sdk - Zipping extension_src/public/tiles/group-members-view/javascripts/jquery.min.js to extension.zip  :  public/tiles/group-members-view/javascripts/jquery.min.js
[2016-09-29 10:50:26.052] [DEBUG] jive-sdk - Zipping extension_src/public/tiles/group-members-view/javascripts/main.js to extension.zip  :  public/tiles/group-members-view/javascripts/main.js
[2016-09-29 10:50:26.052] [DEBUG] jive-sdk - Zipping extension_src/public/tiles/group-members-view/javascripts/moment.min.js to extension.zip  :  public/tiles/group-members-view/javascripts/moment.min.js
[2016-09-29 10:50:26.052] [DEBUG] jive-sdk - Zipping extension_src/public/tiles/group-members-view/javascripts/resizable-tables.js to extension.zip  :  public/tiles/group-members-view/javascripts/resizable-tables.js
[2016-09-29 10:50:26.053] [DEBUG] jive-sdk - Zipping extension_src/public/tiles/group-members-view/stylesheets/main.css to extension.zip  :  public/tiles/group-members-view/stylesheets/main.css
[2016-09-29 10:50:26.055] [DEBUG] jive-sdk - Zipping extension_src/public/tiles/group-members-view/bootstrap/css/bootstrap-theme.css to extension.zip  :  public/tiles/group-members-view/bootstrap/css/bootstrap-theme.css
[2016-09-29 10:50:26.055] [DEBUG] jive-sdk - Zipping extension_src/public/tiles/group-members-view/bootstrap/css/bootstrap-theme.css.map to extension.zip  :  public/tiles/group-members-view/bootstrap/css/bootstrap-theme.css.map
[2016-09-29 10:50:26.055] [DEBUG] jive-sdk - Zipping extension_src/public/tiles/group-members-view/bootstrap/css/bootstrap-theme.min.css to extension.zip  :  public/tiles/group-members-view/bootstrap/css/bootstrap-theme.min.css
[2016-09-29 10:50:26.056] [DEBUG] jive-sdk - Zipping extension_src/public/tiles/group-members-view/bootstrap/css/bootstrap-theme.min.css.map to extension.zip  :  public/tiles/group-members-view/bootstrap/css/bootstrap-theme.min.css.map
[2016-09-29 10:50:26.056] [DEBUG] jive-sdk - Zipping extension_src/public/tiles/group-members-view/bootstrap/css/bootstrap.css to extension.zip  :  public/tiles/group-members-view/bootstrap/css/bootstrap.css
[2016-09-29 10:50:26.056] [DEBUG] jive-sdk - Zipping extension_src/public/tiles/group-members-view/bootstrap/css/bootstrap.css.map to extension.zip  :  public/tiles/group-members-view/bootstrap/css/bootstrap.css.map
[2016-09-29 10:50:26.056] [DEBUG] jive-sdk - Zipping extension_src/public/tiles/group-members-view/bootstrap/css/bootstrap.min.css to extension.zip  :  public/tiles/group-members-view/bootstrap/css/bootstrap.min.css
[2016-09-29 10:50:26.057] [DEBUG] jive-sdk - Zipping extension_src/public/tiles/group-members-view/bootstrap/css/bootstrap.min.css.map to extension.zip  :  public/tiles/group-members-view/bootstrap/css/bootstrap.min.css.map
[2016-09-29 10:50:26.059] [DEBUG] jive-sdk - Zipping extension_src/public/tiles/group-members-view/bootstrap/fonts/glyphicons-halflings-regular.eot to extension.zip  :  public/tiles/group-members-view/bootstrap/fonts/glyphicons-halflings-regular.eot
